{
  "photos": {
    "page": 1,
    "pages": 9,
    "perpage": 100,
    "total": "808",
    "photo": [
      {
        "id": "27380311751",
        "owner": "55050532@N08",
        "secret": "5ed83946c5",
        "server": "7648",
        "farm": 8,
        "title": "Attualmente nelle aste di #Catawiki: Gianluca Fascetto - Dark Side of Crystals http:\/\/aste.catawiki.it\/kavels\/6244229-gianluca-fascetto-dark-side-of-crystals Canvas for Sale !  Visit Catawiki and make your offert.  Bid start from 1€! Follow the link http:",
        "ispublic": 1,
        "isfriend": 0,
        "isfamily": 0
      },
      {
        "id": "27436501205",
        "owner": "55050532@N08",
        "secret": "21f888a26a",
        "server": "7424",
        "farm": 8,
        "title": "Attualmente nelle aste di #Catawiki: Gianluca Fascetto - Dark Side of Crystals http:\/\/aste.catawiki.it\/kavels\/6244229-gianluca-fascetto-dark-side-of-crystals Canvas for Sale !  Visit Catawiki and make your offert.  Bid start from 1€! Follow the link http:",
        "ispublic": 1,
        "isfriend": 0,
        "isfamily": 0
      },
      {
        "id": "26678463923",
        "owner": "55050532@N08",
        "secret": "dd60064463",
        "server": "7255",
        "farm": 8,
        "title": "Canvas for Sale !                                    Vist Catawiki and make your offert.                                              Bid start from 1€! Follow the link http:\/\/aste.catawiki.it\/aanbod\/GianlucaFascetto?utm_medium=email&utm_source=seller_tra",
        "ispublic": 1,
        "isfriend": 0,
        "isfamily": 0
      },
      {
        "id": "27224997045",
        "owner": "34107011@N08",
        "secret": "397fe896c2",
        "server": "7489",
        "farm": 8,
        "title": "Volvo - Amazon P130 121 - 1965",
        "ispublic": 1,
        "isfriend": 0,
        "isfamily": 0
      },
      {
        "id": "26948648590",
        "owner": "34107011@N08",
        "secret": "6ca604949e",
        "server": "7261",
        "farm": 8,
        "title": "Porsche Diesel - Standard Tractor - 1960",
        "ispublic": 1,
        "isfriend": 0,
        "isfamily": 0
      },
      {
        "id": "27189665466",
        "owner": "34107011@N08",
        "secret": "93f5acd243",
        "server": "7199",
        "farm": 8,
        "title": "Porsche Diesel - Standard Tractor - 1960",
        "ispublic": 1,
        "isfriend": 0,
        "isfamily": 0
      },
      {
        "id": "27126946002",
        "owner": "34107011@N08",
        "secret": "9af9e92b2e",
        "server": "7016",
        "farm": 8,
        "title": "Porsche Diesel - Standard Tractor - 1960",
        "ispublic": 1,
        "isfriend": 0,
        "isfamily": 0
      },
      {
        "id": "26948648330",
        "owner": "34107011@N08",
        "secret": "ddce59d053",
        "server": "7696",
        "farm": 8,
        "title": "Porsche Diesel - Standard Tractor - 1960",
        "ispublic": 1,
        "isfriend": 0,
        "isfamily": 0
      },
      {
        "id": "27126945882",
        "owner": "34107011@N08",
        "secret": "100b693117",
        "server": "7094",
        "farm": 8,
        "title": "Porsche Diesel - Standard Tractor - 1960",
        "ispublic": 1,
        "isfriend": 0,
        "isfamily": 0
      },
      {
        "id": "27126945732",
        "owner": "34107011@N08",
        "secret": "387e8167c6",
        "server": "7601",
        "farm": 8,
        "title": "Porsche Diesel - Standard Tractor - 1960",
        "ispublic": 1,
        "isfriend": 0,
        "isfamily": 0
      },
      {
        "id": "26268727626",
        "owner": "34107011@N08",
        "secret": "b8cd5be306",
        "server": "1622",
        "farm": 2,
        "title": "Fiat - 500 - 1967",
        "ispublic": 1,
        "isfriend": 0,
        "isfamily": 0
      },
      {
        "id": "25691937353",
        "owner": "34107011@N08",
        "secret": "52115f0943",
        "server": "1473",
        "farm": 2,
        "title": "Fiat - 500 - 1967",
        "ispublic": 1,
        "isfriend": 0,
        "isfamily": 0
      },
      {
        "id": "26021810030",
        "owner": "34107011@N08",
        "secret": "53813068b9",
        "server": "1479",
        "farm": 2,
        "title": "Fiat - 500 - 19670",
        "ispublic": 1,
        "isfriend": 0,
        "isfamily": 0
      },
      {
        "id": "26228404821",
        "owner": "34107011@N08",
        "secret": "9c94874934",
        "server": "1517",
        "farm": 2,
        "title": "Fiat - 500 - 1967",
        "ispublic": 1,
        "isfriend": 0,
        "isfamily": 0
      },
      {
        "id": "27224998485",
        "owner": "34107011@N08",
        "secret": "a952121a22",
        "server": "7012",
        "farm": 8,
        "title": "Volvo - Amazon P130 121 - 1965",
        "ispublic": 1,
        "isfriend": 0,
        "isfamily": 0
      },
      {
        "id": "27224998225",
        "owner": "34107011@N08",
        "secret": "38f41e1e04",
        "server": "7084",
        "farm": 8,
        "title": "Volvo - Amazon P130 121 - 1965",
        "ispublic": 1,
        "isfriend": 0,
        "isfamily": 0
      },
      {
        "id": "27224997695",
        "owner": "34107011@N08",
        "secret": "ea5c28972e",
        "server": "7728",
        "farm": 8,
        "title": "Volvo - Amazon P130 121 - 1965",
        "ispublic": 1,
        "isfriend": 0,
        "isfamily": 0
      },
      {
        "id": "27224997465",
        "owner": "34107011@N08",
        "secret": "826ed313cc",
        "server": "7770",
        "farm": 8,
        "title": "Volvo - Amazon P130 121 - 1965",
        "ispublic": 1,
        "isfriend": 0,
        "isfamily": 0
      },
      {
        "id": "27224997255",
        "owner": "34107011@N08",
        "secret": "bd03766bf3",
        "server": "7515",
        "farm": 8,
        "title": "Volvo - Amazon P130 121 - 1965",
        "ispublic": 1,
        "isfriend": 0,
        "isfamily": 0
      },
      {
        "id": "26091520473",
        "owner": "34107011@N08",
        "secret": "563c59f4e9",
        "server": "1455",
        "farm": 2,
        "title": "Volkswagen - 1500 S Type 3 ”Ponton” - 19643185",
        "ispublic": 1,
        "isfriend": 0,
        "isfamily": 0
      },
      {
        "id": "26091520613",
        "owner": "34107011@N08",
        "secret": "1a30d2e743",
        "server": "1713",
        "farm": 2,
        "title": "Volkswagen - 1500 S Type 3 ”Ponton” - 1964519",
        "ispublic": 1,
        "isfriend": 0,
        "isfamily": 0
      },
      {
        "id": "26091519963",
        "owner": "34107011@N08",
        "secret": "734fe90c37",
        "server": "1545",
        "farm": 2,
        "title": "Volkswagen - 1500 S Type 3 ”Ponton” - 1964",
        "ispublic": 1,
        "isfriend": 0,
        "isfamily": 0
      },
      {
        "id": "26091520083",
        "owner": "34107011@N08",
        "secret": "a299c08b2b",
        "server": "1652",
        "farm": 2,
        "title": "Volkswagen - 1500 S Type 3 ”Ponton” - 1964",
        "ispublic": 1,
        "isfriend": 0,
        "isfamily": 0
      },
      {
        "id": "26653215636",
        "owner": "13700208@N03",
        "secret": "2b419df645",
        "server": "1519",
        "farm": 2,
        "title": "Things are getting a bit crowded in my studio, so I've teamed up with Catawiki to auction off some paintings. Bidding on them all is live now and they all end tomorrow evening (28th April) from 7pm UK time. I've updated the link in my bio to go straight t",
        "ispublic": 1,
        "isfriend": 0,
        "isfamily": 0
      },
      {
        "id": "26662888815",
        "owner": "34107011@N08",
        "secret": "84bc395de7",
        "server": "1630",
        "farm": 2,
        "title": "Alfa Romeo - Giulia GT Sprint Veloce - 1966",
        "ispublic": 1,
        "isfriend": 0,
        "isfamily": 0
      },
      {
        "id": "26569546462",
        "owner": "34107011@N08",
        "secret": "701abdbaeb",
        "server": "1445",
        "farm": 2,
        "title": "Alfa Romeo - Giulia GT Sprint Veloce - 1966ce1",
        "ispublic": 1,
        "isfriend": 0,
        "isfamily": 0
      },
      {
        "id": "26057265094",
        "owner": "34107011@N08",
        "secret": "88df1f090e",
        "server": "1603",
        "farm": 2,
        "title": "Alfa Romeo - Giulia GT Sprint Veloce - 19661403",
        "ispublic": 1,
        "isfriend": 0,
        "isfamily": 0
      },
      {
        "id": "26057264904",
        "owner": "34107011@N08",
        "secret": "8e3d7dbdb7",
        "server": "1521",
        "farm": 2,
        "title": "Alfa Romeo - Giulia GT Sprint Veloce - 1966",
        "ispublic": 1,
        "isfriend": 0,
        "isfamily": 0
      },
      {
        "id": "26057265024",
        "owner": "34107011@N08",
        "secret": "6060770e6d",
        "server": "1598",
        "farm": 2,
        "title": "Alfa Romeo - Giulia GT Sprint Veloce - 1966",
        "ispublic": 1,
        "isfriend": 0,
        "isfamily": 0
      },
      {
        "id": "26569545892",
        "owner": "34107011@N08",
        "secret": "b64b08a984",
        "server": "1645",
        "farm": 2,
        "title": "Alfa Romeo - Giulia GT Sprint Veloce - 1966",
        "ispublic": 1,
        "isfriend": 0,
        "isfamily": 0
      },
      {
        "id": "26057264804",
        "owner": "34107011@N08",
        "secret": "4986f0ebf1",
        "server": "1614",
        "farm": 2,
        "title": "Alfa Romeo - Giulia GT Sprint Veloce - 1966",
        "ispublic": 1,
        "isfriend": 0,
        "isfamily": 0
      },
      {
        "id": "26389450080",
        "owner": "34107011@N08",
        "secret": "c69776337b",
        "server": "1552",
        "farm": 2,
        "title": "NSU - 1200 TT - 1971",
        "ispublic": 1,
        "isfriend": 0,
        "isfamily": 0
      },
      {
        "id": "26389449970",
        "owner": "34107011@N08",
        "secret": "ac2c88b360",
        "server": "1612",
        "farm": 2,
        "title": "NSU - 1200 TT - 1971",
        "ispublic": 1,
        "isfriend": 0,
        "isfamily": 0
      },
      {
        "id": "26569300212",
        "owner": "34107011@N08",
        "secret": "62db7c7bd6",
        "server": "1720",
        "farm": 2,
        "title": "NSU - 1200 TT - 1971",
        "ispublic": 1,
        "isfriend": 0,
        "isfamily": 0
      },
      {
        "id": "26058433943",
        "owner": "34107011@N08",
        "secret": "58b404c73d",
        "server": "1609",
        "farm": 2,
        "title": "NSU - 1200 TT - 1971",
        "ispublic": 1,
        "isfriend": 0,
        "isfamily": 0
      },
      {
        "id": "26389449580",
        "owner": "34107011@N08",
        "secret": "536fff57bc",
        "server": "1527",
        "farm": 2,
        "title": "NSU - 1200 TT - 1971",
        "ispublic": 1,
        "isfriend": 0,
        "isfamily": 0
      },
      {
        "id": "26596510751",
        "owner": "34107011@N08",
        "secret": "fa063a6285",
        "server": "1585",
        "farm": 2,
        "title": "Lancia - Aurelia B20 series 3 - 1953",
        "ispublic": 1,
        "isfriend": 0,
        "isfamily": 0
      },
      {
        "id": "26596510511",
        "owner": "34107011@N08",
        "secret": "75ed0e590a",
        "server": "1485",
        "farm": 2,
        "title": "Lancia - Aurelia B20 series 3 - 1953",
        "ispublic": 1,
        "isfriend": 0,
        "isfamily": 0
      },
      {
        "id": "26596510361",
        "owner": "34107011@N08",
        "secret": "ee1917f0cf",
        "server": "1641",
        "farm": 2,
        "title": "Lancia - Aurelia B20 series 3 - 1953",
        "ispublic": 1,
        "isfriend": 0,
        "isfamily": 0
      },
      {
        "id": "26596510601",
        "owner": "34107011@N08",
        "secret": "78127cf237",
        "server": "1514",
        "farm": 2,
        "title": "Lancia - Aurelia B20 series 3 - 1953",
        "ispublic": 1,
        "isfriend": 0,
        "isfamily": 0
      },
      {
        "id": "26056357904",
        "owner": "34107011@N08",
        "secret": "55e079518a",
        "server": "1509",
        "farm": 2,
        "title": "Maserati - 350S - 1957",
        "ispublic": 1,
        "isfriend": 0,
        "isfamily": 0
      },
      {
        "id": "26056358014",
        "owner": "34107011@N08",
        "secret": "37af75e4bd",
        "server": "1456",
        "farm": 2,
        "title": "Maserati - 350S - 1957",
        "ispublic": 1,
        "isfriend": 0,
        "isfamily": 0
      },
      {
        "id": "26056357734",
        "owner": "34107011@N08",
        "secret": "128d1b8be9",
        "server": "1702",
        "farm": 2,
        "title": "Maserati - 350S - 1957",
        "ispublic": 1,
        "isfriend": 0,
        "isfamily": 0
      },
      {
        "id": "26056357634",
        "owner": "34107011@N08",
        "secret": "7e5e84b663",
        "server": "1526",
        "farm": 2,
        "title": "Maserati - 350S - 1957",
        "ispublic": 1,
        "isfriend": 0,
        "isfamily": 0
      },
      {
        "id": "26635316386",
        "owner": "34107011@N08",
        "secret": "6efb7e4c92",
        "server": "1595",
        "farm": 2,
        "title": "Maserati - 350S - 1957",
        "ispublic": 1,
        "isfriend": 0,
        "isfamily": 0
      },
      {
        "id": "26635316516",
        "owner": "34107011@N08",
        "secret": "0f12a3607d",
        "server": "1525",
        "farm": 2,
        "title": "Maserati - 350S - 1957",
        "ispublic": 1,
        "isfriend": 0,
        "isfamily": 0
      },
      {
        "id": "26635316276",
        "owner": "34107011@N08",
        "secret": "4b15d77283",
        "server": "1719",
        "farm": 2,
        "title": "Maserati - 350S - 1957",
        "ispublic": 1,
        "isfriend": 0,
        "isfamily": 0
      },
      {
        "id": "26528101002",
        "owner": "34107011@N08",
        "secret": "3305bdd5cc",
        "server": "1597",
        "farm": 2,
        "title": "Alfa Romeo - Giulietta Sprint Speciale 1.3",
        "ispublic": 1,
        "isfriend": 0,
        "isfamily": 0
      },
      {
        "id": "26528101082",
        "owner": "34107011@N08",
        "secret": "14d8eb80bc",
        "server": "1444",
        "farm": 2,
        "title": "Alfa Romeo - Giulietta Sprint Speciale 1.376a",
        "ispublic": 1,
        "isfriend": 0,
        "isfamily": 0
      },
      {
        "id": "26528100872",
        "owner": "34107011@N08",
        "secret": "42e0999aec",
        "server": "1638",
        "farm": 2,
        "title": "Alfa Romeo - Giulietta Sprint Speciale 1.3",
        "ispublic": 1,
        "isfriend": 0,
        "isfamily": 0
      },
      {
        "id": "26528100762",
        "owner": "34107011@N08",
        "secret": "39fc0f35a7",
        "server": "1548",
        "farm": 2,
        "title": "Alfa Romeo - Giulietta Sprint Speciale 1.3",
        "ispublic": 1,
        "isfriend": 0,
        "isfamily": 0
      },
      {
        "id": "26528100652",
        "owner": "34107011@N08",
        "secret": "ae2dfb2a1d",
        "server": "1597",
        "farm": 2,
        "title": "Alfa Romeo - Giulietta Sprint Speciale 1.3",
        "ispublic": 1,
        "isfriend": 0,
        "isfamily": 0
      },
      {
        "id": "26301619722",
        "owner": "34107011@N08",
        "secret": "077ab0cb35",
        "server": "1713",
        "farm": 2,
        "title": "Pierce Arrow - 1601 convertible coupé - 1936",
        "ispublic": 1,
        "isfriend": 0,
        "isfamily": 0
      },
      {
        "id": "25789121464",
        "owner": "34107011@N08",
        "secret": "842288f5aa",
        "server": "1623",
        "farm": 2,
        "title": "Pierce Arrow - 1601 convertible coupé - 1936",
        "ispublic": 1,
        "isfriend": 0,
        "isfamily": 0
      },
      {
        "id": "25789121234",
        "owner": "34107011@N08",
        "secret": "fe43665d45",
        "server": "1507",
        "farm": 2,
        "title": "Pierce Arrow - 1601 convertible coupé - 1936",
        "ispublic": 1,
        "isfriend": 0,
        "isfamily": 0
      },
      {
        "id": "25789121084",
        "owner": "34107011@N08",
        "secret": "c733acdd2b",
        "server": "1673",
        "farm": 2,
        "title": "Pierce Arrow - 1601 convertible coupé - 1936",
        "ispublic": 1,
        "isfriend": 0,
        "isfamily": 0
      },
      {
        "id": "26393963795",
        "owner": "34107011@N08",
        "secret": "beb09817ab",
        "server": "1489",
        "farm": 2,
        "title": "Pierce Arrow - 1601 convertible coupé - 1936",
        "ispublic": 1,
        "isfriend": 0,
        "isfamily": 0
      },
      {
        "id": "25789119504",
        "owner": "34107011@N08",
        "secret": "8aa576c89d",
        "server": "1622",
        "farm": 2,
        "title": "Pierce Arrow - 1601 convertible coupé - 1936",
        "ispublic": 1,
        "isfriend": 0,
        "isfamily": 0
      },
      {
        "id": "25692940223",
        "owner": "34107011@N08",
        "secret": "5477dcbafb",
        "server": "1552",
        "farm": 2,
        "title": "Seat - 600 D - 1967",
        "ispublic": 1,
        "isfriend": 0,
        "isfamily": 0
      },
      {
        "id": "26269719116",
        "owner": "34107011@N08",
        "secret": "8e551daff1",
        "server": "1466",
        "farm": 2,
        "title": "Seat - 600 D - 1967",
        "ispublic": 1,
        "isfriend": 0,
        "isfamily": 0
      },
      {
        "id": "26229401471",
        "owner": "34107011@N08",
        "secret": "0ceddd2dd9",
        "server": "1719",
        "farm": 2,
        "title": "Seat - 600 D - 1967",
        "ispublic": 1,
        "isfriend": 0,
        "isfamily": 0
      },
      {
        "id": "26203241642",
        "owner": "34107011@N08",
        "secret": "18e35b7133",
        "server": "1453",
        "farm": 2,
        "title": "Seat - 600 D - 1967",
        "ispublic": 1,
        "isfriend": 0,
        "isfamily": 0
      },
      {
        "id": "26021810510",
        "owner": "34107011@N08",
        "secret": "ef48fe1586",
        "server": "1704",
        "farm": 2,
        "title": "Fiat - 500 - 1967",
        "ispublic": 1,
        "isfriend": 0,
        "isfamily": 0
      },
      {
        "id": "25691937193",
        "owner": "34107011@N08",
        "secret": "fc5bd4a28d",
        "server": "1577",
        "farm": 2,
        "title": "Fiat - 500 - 1967",
        "ispublic": 1,
        "isfriend": 0,
        "isfamily": 0
      },
      {
        "id": "26228270331",
        "owner": "34107011@N08",
        "secret": "a35f467219",
        "server": "1659",
        "farm": 2,
        "title": "Packard - Super Eight Victoria Coupé - 1948",
        "ispublic": 1,
        "isfriend": 0,
        "isfamily": 0
      },
      {
        "id": "26202107122",
        "owner": "34107011@N08",
        "secret": "7457ae1ef6",
        "server": "1442",
        "farm": 2,
        "title": "Packard - Super Eight Victoria Coupé - 1948",
        "ispublic": 1,
        "isfriend": 0,
        "isfamily": 0
      },
      {
        "id": "26294543805",
        "owner": "34107011@N08",
        "secret": "8f9fde47fc",
        "server": "1660",
        "farm": 2,
        "title": "Packard - Super Eight Victoria Coupé - 1948",
        "ispublic": 1,
        "isfriend": 0,
        "isfamily": 0
      },
      {
        "id": "26228270051",
        "owner": "34107011@N08",
        "secret": "89b9aa14a9",
        "server": "1520",
        "farm": 2,
        "title": "Packard - Super Eight Victoria Coupé - 1948",
        "ispublic": 1,
        "isfriend": 0,
        "isfamily": 0
      },
      {
        "id": "25689577074",
        "owner": "34107011@N08",
        "secret": "3f12425467",
        "server": "1496",
        "farm": 2,
        "title": "Citroen - 2CV6 Charleston - 1981",
        "ispublic": 1,
        "isfriend": 0,
        "isfamily": 0
      },
      {
        "id": "26021576310",
        "owner": "34107011@N08",
        "secret": "7029b05726",
        "server": "1453",
        "farm": 2,
        "title": "Citroen - 2CV6 Charleston - 1981",
        "ispublic": 1,
        "isfriend": 0,
        "isfamily": 0
      },
      {
        "id": "25978374560",
        "owner": "34107011@N08",
        "secret": "dc5d7d6d68",
        "server": "1450",
        "farm": 2,
        "title": "Ford Custom Coupe - 1950",
        "ispublic": 1,
        "isfriend": 0,
        "isfamily": 0
      },
      {
        "id": "25646456664",
        "owner": "34107011@N08",
        "secret": "c50922dc98",
        "server": "1472",
        "farm": 2,
        "title": "Ford Custom Coupe - 1950",
        "ispublic": 1,
        "isfriend": 0,
        "isfamily": 0
      },
      {
        "id": "25646456404",
        "owner": "34107011@N08",
        "secret": "68da03e24d",
        "server": "1487",
        "farm": 2,
        "title": "Ford Custom Coupe - 1950",
        "ispublic": 1,
        "isfriend": 0,
        "isfamily": 0
      },
      {
        "id": "26184946981",
        "owner": "34107011@N08",
        "secret": "a243728505",
        "server": "1645",
        "farm": 2,
        "title": "Ford Custom Coupe - 1950",
        "ispublic": 1,
        "isfriend": 0,
        "isfamily": 0
      },
      {
        "id": "26251228035",
        "owner": "34107011@N08",
        "secret": "f44ab41492",
        "server": "1662",
        "farm": 2,
        "title": "Ford Custom Coupe - 1950",
        "ispublic": 1,
        "isfriend": 0,
        "isfamily": 0
      },
      {
        "id": "26225306276",
        "owner": "34107011@N08",
        "secret": "78bbbf7f10",
        "server": "1528",
        "farm": 2,
        "title": "Ford Custom Coupe - 1950",
        "ispublic": 1,
        "isfriend": 0,
        "isfamily": 0
      },
      {
        "id": "26225306426",
        "owner": "34107011@N08",
        "secret": "4f2e2d23bf",
        "server": "1539",
        "farm": 2,
        "title": "Ford Custom Coupe - 1950",
        "ispublic": 1,
        "isfriend": 0,
        "isfamily": 0
      },
      {
        "id": "26225306006",
        "owner": "34107011@N08",
        "secret": "2f6265a797",
        "server": "1643",
        "farm": 2,
        "title": "Ford Custom Coupe - 1950",
        "ispublic": 1,
        "isfriend": 0,
        "isfamily": 0
      },
      {
        "id": "26225306146",
        "owner": "34107011@N08",
        "secret": "ef0f53e685",
        "server": "1522",
        "farm": 2,
        "title": "Ford Custom Coupe - 1950",
        "ispublic": 1,
        "isfriend": 0,
        "isfamily": 0
      },
      {
        "id": "26158674642",
        "owner": "34107011@N08",
        "secret": "8815a58f4d",
        "server": "1620",
        "farm": 2,
        "title": "Volkswagen - Kever Ovaal - 1953",
        "ispublic": 1,
        "isfriend": 0,
        "isfamily": 0
      },
      {
        "id": "26184828921",
        "owner": "34107011@N08",
        "secret": "1acd13e8ca",
        "server": "1539",
        "farm": 2,
        "title": "Volkswagen - Kever Ovaal - 1953",
        "ispublic": 1,
        "isfriend": 0,
        "isfamily": 0
      },
      {
        "id": "25648433773",
        "owner": "34107011@N08",
        "secret": "c1ed7aa9e7",
        "server": "1506",
        "farm": 2,
        "title": "Volkswagen - Kever Ovaal - 1953",
        "ispublic": 1,
        "isfriend": 0,
        "isfamily": 0
      },
      {
        "id": "26251107295",
        "owner": "34107011@N08",
        "secret": "c15ca332dc",
        "server": "1644",
        "farm": 2,
        "title": "Volkswagen - Kever Ovaal - 1953",
        "ispublic": 1,
        "isfriend": 0,
        "isfamily": 0
      },
      {
        "id": "25646334314",
        "owner": "34107011@N08",
        "secret": "dddefc7bb3",
        "server": "1707",
        "farm": 2,
        "title": "Volkswagen - Kever Ovaal - 1953",
        "ispublic": 1,
        "isfriend": 0,
        "isfamily": 0
      },
      {
        "id": "25648433273",
        "owner": "34107011@N08",
        "secret": "36e46055de",
        "server": "1560",
        "farm": 2,
        "title": "Volkswagen - Kever Ovaal - 1953",
        "ispublic": 1,
        "isfriend": 0,
        "isfamily": 0
      },
      {
        "id": "26171968481",
        "owner": "34107011@N08",
        "secret": "5c4bf57776",
        "server": "1698",
        "farm": 2,
        "title": "Volkswagen - Kever 1303 - 1974",
        "ispublic": 1,
        "isfriend": 0,
        "isfamily": 0
      },
      {
        "id": "26145806212",
        "owner": "34107011@N08",
        "secret": "6373690b97",
        "server": "1526",
        "farm": 2,
        "title": "Volkswagen - Kever 1303 - 1974",
        "ispublic": 1,
        "isfriend": 0,
        "isfamily": 0
      },
      {
        "id": "25635577613",
        "owner": "34107011@N08",
        "secret": "110a408411",
        "server": "1684",
        "farm": 2,
        "title": "Volkswagen - Kever 1303 - 1974",
        "ispublic": 1,
        "isfriend": 0,
        "isfamily": 0
      },
      {
        "id": "25635577293",
        "owner": "34107011@N08",
        "secret": "466087ecbf",
        "server": "1444",
        "farm": 2,
        "title": "Volkswagen - Kever 1303 - 1974",
        "ispublic": 1,
        "isfriend": 0,
        "isfamily": 0
      },
      {
        "id": "25635577403",
        "owner": "34107011@N08",
        "secret": "8d50d8b771",
        "server": "1552",
        "farm": 2,
        "title": "Volkswagen - Kever 1303 - 1974",
        "ispublic": 1,
        "isfriend": 0,
        "isfamily": 0
      },
      {
        "id": "25965204510",
        "owner": "34107011@N08",
        "secret": "092a04a830",
        "server": "1717",
        "farm": 2,
        "title": "Citroën - DS23 Pallas - 1973",
        "ispublic": 1,
        "isfriend": 0,
        "isfamily": 0
      },
      {
        "id": "25965200820",
        "owner": "34107011@N08",
        "secret": "aa2c37098e",
        "server": "1692",
        "farm": 2,
        "title": "Citroën - DS23 Pallas - 1973",
        "ispublic": 1,
        "isfriend": 0,
        "isfamily": 0
      },
      {
        "id": "26212169186",
        "owner": "34107011@N08",
        "secret": "a5eec89e3b",
        "server": "1551",
        "farm": 2,
        "title": "Citroën - DS23 Pallas - 1973",
        "ispublic": 1,
        "isfriend": 0,
        "isfamily": 0
      },
      {
        "id": "26238092065",
        "owner": "34107011@N08",
        "secret": "bc021f328e",
        "server": "1550",
        "farm": 2,
        "title": "Citroën - DS23 Pallas - 1973",
        "ispublic": 1,
        "isfriend": 0,
        "isfamily": 0
      },
      {
        "id": "26238091705",
        "owner": "34107011@N08",
        "secret": "a7df481251",
        "server": "1494",
        "farm": 2,
        "title": "Citroën - DS23 Pallas - 1973",
        "ispublic": 1,
        "isfriend": 0,
        "isfamily": 0
      },
      {
        "id": "26237899395",
        "owner": "34107011@N08",
        "secret": "b51a917e5e",
        "server": "1481",
        "farm": 2,
        "title": "Volkswagen Beetle 1303 - 1972",
        "ispublic": 1,
        "isfriend": 0,
        "isfamily": 0
      },
      {
        "id": "26145447412",
        "owner": "34107011@N08",
        "secret": "4cd14a1b0c",
        "server": "1667",
        "farm": 2,
        "title": "Volkswagen Beetle 1303 - 1972",
        "ispublic": 1,
        "isfriend": 0,
        "isfamily": 0
      },
      {
        "id": "26211976276",
        "owner": "34107011@N08",
        "secret": "d98476cb56",
        "server": "1652",
        "farm": 2,
        "title": "Volkswagen Beetle 1303 - 1972",
        "ispublic": 1,
        "isfriend": 0,
        "isfamily": 0
      },
      {
        "id": "25965003020",
        "owner": "34107011@N08",
        "secret": "f761ba5f7d",
        "server": "1476",
        "farm": 2,
        "title": "Volkswagen Beetle 1303 - 1972",
        "ispublic": 1,
        "isfriend": 0,
        "isfamily": 0
      },
      {
        "id": "26145447072",
        "owner": "34107011@N08",
        "secret": "1e3c4059f7",
        "server": "1546",
        "farm": 2,
        "title": "Volkswagen Beetle 1303 - 1972",
        "ispublic": 1,
        "isfriend": 0,
        "isfamily": 0
      }
    ]
  },
  "stat": "ok"
}